Verilog/ASSIGNMENTS/Assignment_1/20.UDP for Custom Logic/logic_udp_wave.vcd
$date
	Fri Sep  5 09:37:00 2025
$end
$version
	Icarus Verilog
$end
$timescale
	1s
$end
$scope module tb_logic_udp $end
$var wire 1 ! f $end
$var reg 1 " x $end
$var reg 1 # y $end
$var reg 1 $ z $end
$upscope $end
$enddefinitions $end
$comment Show the parameter values. $end
$dumpall
$end
#0
$dumpvars
0$
0#
0"
0!
$end
#10
1$
#20
1!
0$
1#
#30
0!
1$
#40
1!
0$
0#
1"
#50
1$
#60
0$
1#
#70
1$
